{
    "cordova-plugin-whitelist": {
        "source": {
            "type": "registry",
            "id": "cordova-plugin-whitelist@1"
        },
        "is_top_level": true,
        "variables": {}
    },
    "remcob00-cordova-youtube-android-player-api": {
        "source": {
            "type": "local",
            "path": "node_modules/remcob00-cordova-youtube-android-player-api"
        },
        "is_top_level": true,
        "variables": {}
    },
    "cordova-plugin-dialogs": {
        "source": {
            "type": "registry",
            "id": "cordova-plugin-dialogs"
        },
        "is_top_level": true,
        "variables": {}
    }
}